36
5 100
0	21	58	17	33	48	69	21	54	55	47	70	36	34	41	2	12	36	53	60	56	6	25	44	47	42	34	62	33	29	29	37	30	45	14	47	17
21	0	37	19	45	40	53	30	46	42	29	55	15	26	22	23	17	17	66	39	36	16	21	26	35	47	50	52	52	50	42	55	49	44	33	59	37
58	37	0	52	75	46	35	61	57	45	19	48	22	42	24	60	51	27	98	9	20	53	46	29	44	74	85	57	88	87	77	91	86	60	71	91	74
17	19	52	0	50	58	72	37	37	38	48	54	33	43	31	17	25	26	47	51	45	19	36	31	30	28	33	44	36	39	24	39	35	59	22	40	26
33	45	75	50	0	41	70	14	87	86	57	100	55	34	67	34	28	63	77	80	81	31	28	72	78	73	58	94	53	38	57	55	48	27	39	74	38
48	40	46	58	41	0	30	34	86	78	27	88	36	15	53	51	36	51	101	55	61	42	23	60	73	86	83	90	81	71	77	84	77	16	62	95	64
69	53	35	72	70	30	0	61	89	79	25	83	41	38	54	72	58	55	120	44	55	63	46	60	75	100	103	91	103	96	96	107	99	46	84	113	87
21	30	61	37	14	34	61	0	73	71	45	85	40	23	52	23	13	48	71	66	66	18	16	57	64	63	52	80	48	36	48	51	43	26	31	66	31
54	46	57	37	87	86	89	73	0	12	65	25	50	72	35	54	60	35	58	50	38	55	68	28	13	31	55	8	62	73	47	64	64	91	56	50	60
55	42	45	38	86	78	79	71	12	0	56	16	42	66	26	55	58	27	68	38	26	54	64	19	7	41	62	12	69	77	54	71	69	86	60	60	64
47	29	19	48	57	27	25	45	65	56	0	62	16	23	30	50	37	30	95	28	35	41	29	37	51	75	79	68	80	75	72	84	77	41	61	88	65
70	55	48	54	100	88	83	85	25	16	62	0	51	77	35	70	72	38	83	39	28	69	76	29	23	56	78	18	85	93	70	87	86	97	76	75	80
36	15	22	33	55	36	41	40	50	42	16	51	0	26	16	38	29	15	80	25	26	31	27	23	37	59	65	54	67	65	57	70	64	46	49	73	53
34	26	42	43	34	15	38	23	72	66	23	77	26	0	42	36	21	39	86	49	52	27	8	48	60	71	68	77	67	58	62	70	63	20	48	80	50
41	22	24	31	67	53	54	52	35	26	30	35	16	42	0	43	39	5	75	21	14	38	41	7	21	50	63	38	67	69	54	70	66	62	52	67	56
2	23	60	17	34	51	72	23	54	55	50	70	38	36	43	0	15	38	50	62	57	9	28	45	47	40	32	61	30	27	26	34	27	48	11	44	14
12	17	51	25	28	36	58	13	60	58	37	72	29	21	39	15	0	35	65	55	53	6	13	43	50	52	47	67	45	38	41	48	41	34	26	59	28
36	17	27	26	63	51	55	48	35	27	30	38	15	39	5	38	35	0	71	25	19	33	37	9	22	47	59	39	62	64	50	65	61	59	47	63	51
53	66	98	47	77	101	120	71	58	68	95	83	80	86	75	50	65	71	0	96	86	59	78	72	63	27	18	65	25	42	24	23	30	97	40	8	39
60	39	9	51	80	55	44	66	50	38	28	39	25	49	21	62	55	25	96	0	12	55	51	24	38	71	84	50	88	89	75	91	86	68	72	88	76
56	36	20	45	81	61	55	66	38	26	35	28	26	52	14	57	53	19	86	12	0	52	53	14	26	60	76	38	81	84	67	84	80	73	66	78	70
6	16	53	19	31	42	63	18	55	54	41	69	31	27	38	9	6	33	59	55	52	0	19	41	47	46	41	62	40	34	34	43	36	40	20	53	23
25	21	46	36	28	23	46	16	68	64	29	76	27	8	41	28	13	37	78	51	53	19	0	47	57	65	60	74	58	50	54	62	54	23	39	72	41
44	26	29	31	72	60	60	57	28	19	37	29	23	48	7	45	43	9	72	24	14	41	47	0	15	47	62	31	67	70	53	70	66	68	53	64	57
47	35	44	30	78	73	75	64	13	7	51	23	37	60	21	47	50	22	63	38	26	47	57	15	0	36	56	17	62	69	47	64	62	80	52	54	56
42	47	74	28	73	86	100	63	31	41	75	56	59	71	50	40	52	47	27	71	60	46	65	47	36	0	25	38	34	48	20	35	36	86	35	19	38
34	50	85	33	58	83	103	52	55	62	79	78	65	68	63	32	47	59	18	84	76	41	60	62	56	25	0	63	8	25	9	9	12	78	21	16	20
62	52	57	44	94	90	91	80	8	12	68	18	54	77	38	61	67	39	65	50	38	62	74	31	17	38	63	0	70	81	55	72	72	97	64	57	68
33	52	88	36	53	81	103	48	62	69	80	85	67	67	67	30	45	62	25	88	81	40	58	67	62	34	8	70	0	17	15	3	5	74	19	24	17
29	50	87	39	38	71	96	36	73	77	75	93	65	58	69	27	38	64	42	89	84	34	50	70	69	48	25	81	17	0	28	19	12	62	17	41	13
29	42	77	24	57	77	96	48	47	54	72	70	57	62	54	26	41	50	24	75	67	34	54	53	47	20	9	55	15	28	0	17	17	74	18	18	19
37	55	91	39	55	84	107	51	64	71	84	87	70	70	70	34	48	65	23	91	84	43	62	70	64	35	9	72	3	19	17	0	8	78	22	23	20
30	49	86	35	48	77	99	43	64	69	77	86	64	63	66	27	41	61	30	86	80	36	54	66	62	36	12	72	5	12	17	8	0	70	15	28	12
45	44	60	59	27	16	46	26	91	86	41	97	46	20	62	48	34	59	97	68	73	40	23	68	80	86	78	97	74	62	74	78	70	0	57	92	58
14	33	71	22	39	62	84	31	56	60	61	76	49	48	52	11	26	47	40	72	66	20	39	53	52	35	21	64	19	17	18	22	15	57	0	35	4
47	59	91	40	74	95	113	66	50	60	88	75	73	80	67	44	59	63	8	88	78	53	72	64	54	19	16	57	24	41	18	23	28	92	35	0	36
17	37	74	26	38	64	87	31	60	64	65	80	53	50	56	14	28	51	39	76	70	23	41	57	56	38	20	68	17	13	19	20	12	58	4	36	0
1 16 
2 18 
3 1 
4 13 
5 8 
6 23 
7 7 
8 27 
9 1 
10 3 
11 6 
12 24 
13 19 
14 2 
15 5 
16 16 
17 7 
18 4 
19 22 
20 7 
21 23 
22 16 
23 2 
24 2 
25 9 
26 2 
27 12 
28 1 
29 9 
30 23 
31 6 
32 19 
33 7 
34 7 
35 20 
36 20